[gd_resource type="Animation" format=2]

[resource]

resource_name = "punchFist1"
length = 0.2
loop = false
step = 0.01
tracks/0/type = "value"
tracks/0/path = NodePath("Fist1/Fist1PunchSprite:position")
tracks/0/interp = 1
tracks/0/loop_wrap = false
tracks/0/imported = false
tracks/0/enabled = true
tracks/0/keys = {
"times": PoolRealArray( 0, 0.02, 0.2 ),
"transitions": PoolRealArray( 1, 1, 1 ),
"update": 0,
"values": [ Vector2( 29, -10 ), Vector2( 29, -10 ), Vector2( 0, 0 ) ]
}
tracks/1/type = "value"
tracks/1/path = NodePath("Fist1/Fist1PunchSprite:scale")
tracks/1/interp = 1
tracks/1/loop_wrap = false
tracks/1/imported = false
tracks/1/enabled = true
tracks/1/keys = {
"times": PoolRealArray( 0, 0.02, 0.2 ),
"transitions": PoolRealArray( 1, 1, 1 ),
"update": 0,
"values": [ Vector2( 0.54, 0.59 ), Vector2( 0.54, 0.59 ), Vector2( 0.25, 0.25 ) ]
}
tracks/2/type = "value"
tracks/2/path = NodePath("Fist2/Fist2PunchSprite:position")
tracks/2/interp = 1
tracks/2/loop_wrap = true
tracks/2/imported = false
tracks/2/enabled = true
tracks/2/keys = {
"times": PoolRealArray( 0 ),
"transitions": PoolRealArray( 1 ),
"update": 0,
"values": [ Vector2( 0, 0 ) ]
}
tracks/3/type = "value"
tracks/3/path = NodePath("Fist2/Fist2PunchSprite:scale")
tracks/3/interp = 1
tracks/3/loop_wrap = true
tracks/3/imported = false
tracks/3/enabled = true
tracks/3/keys = {
"times": PoolRealArray( 0 ),
"transitions": PoolRealArray( 1 ),
"update": 0,
"values": [ Vector2( 0.25, 0.25 ) ]
}

