[gd_scene load_steps=8 format=2]

[ext_resource path="res://Scripts/LevelManager.gd" type="Script" id=1]
[ext_resource path="res://TileSets/TestTileSetWall.tres" type="TileSet" id=2]
[ext_resource path="res://TileSets/TestTileSetPlatform.tres" type="TileSet" id=3]
[ext_resource path="res://Enemy.tscn" type="PackedScene" id=4]
[ext_resource path="res://static.tscn" type="PackedScene" id=5]
[ext_resource path="res://Player.tscn" type="PackedScene" id=6]
[ext_resource path="res://containerforHB.tscn" type="PackedScene" id=7]



[node name="TestLevel" type="Node"]

script = ExtResource( 1 )

[node name="World" type="Node" parent="." index="0"]

[node name="Walls" type="TileMap" parent="World" index="0"]

mode = 0
tile_set = ExtResource( 2 )
cell_size = Vector2( 24, 24 )
cell_quadrant_size = 16
cell_custom_transform = Transform2D( 1, 0, 0, 1, 0, 0 )
cell_half_offset = 2
cell_tile_origin = 0
cell_y_sort = false
cell_clip_uv = false
collision_use_kinematic = false
collision_friction = 1.0
collision_bounce = 0.0
collision_layer = 8
collision_mask = 6
occluder_light_mask = 1
format = 1
tile_data = PoolIntArray( -131074, 0, 0, -131073, 0, 0, -196608, 0, 0, -196607, 0, 0, -196606, 0, 0, -196605, 0, 0, -196604, 0, 0, -196603, 0, 0, -196602, 0, 0, -196601, 0, 0, -196600, 0, 0, -196599, 0, 0, -196598, 0, 0, -196597, 0, 0, -196596, 0, 0, -196595, 0, 0, -196594, 0, 0, -196593, 0, 0, -196592, 0, 0, -196591, 0, 0, -196590, 0, 0, -196589, 0, 0, -196588, 0, 0, -196587, 0, 0, -196586, 0, 0, -196585, 0, 0, -196584, 0, 0, -196583, 0, 0, -196582, 0, 0, -196581, 0, 0, -196580, 0, 0, -196579, 0, 0, -196578, 0, 0, -196577, 0, 0, -196576, 0, 0, -196575, 0, 0, -196574, 0, 0, -196573, 0, 0, -196572, 0, 0, -196571, 0, 0, -196570, 0, 0, -196569, 0, 0, -196568, 0, 0, -196567, 0, 0, -196566, 0, 0, -196565, 0, 0, -196564, 0, 0, -196563, 0, 0, -196562, 0, 0, -196561, 0, 0, -196560, 0, 0, -196559, 0, 0, -196558, 0, 0, -196557, 0, 0, -196556, 0, 0, -196555, 0, 0, -196554, 0, 0, -196553, 0, 0, -196552, 0, 0, -196551, 0, 0, -196550, 0, 0, -196549, 0, 0, -196548, 0, 0, -196547, 0, 0, -196546, 0, 0, -196545, 0, 0, -196544, 0, 0, -196543, 0, 0, -196542, 0, 0, -196541, 0, 0, -196540, 0, 0, -196539, 0, 0, -196538, 0, 0, -196537, 0, 0, -196536, 0, 0, -196535, 0, 0, -196534, 0, 0, -196533, 0, 0, -196532, 0, 0, -196531, 0, 0, -196530, 0, 0, -196529, 0, 0, -196528, 0, 0, -196527, 0, 0, -196526, 0, 0, -196525, 0, 0, -65538, 0, 0, -65537, 0, 0, -131072, 0, 0, -131071, 0, 0, -131070, 0, 0, -131069, 0, 0, -131068, 0, 0, -131067, 0, 0, -131066, 0, 0, -131065, 0, 0, -131064, 0, 0, -131063, 0, 0, -131062, 0, 0, -131061, 0, 0, -131060, 0, 0, -131059, 0, 0, -131058, 0, 0, -131057, 0, 0, -131056, 0, 0, -131055, 0, 0, -131054, 0, 0, -131053, 0, 0, -131052, 0, 0, -131051, 0, 0, -131050, 0, 0, -131049, 0, 0, -131048, 0, 0, -131047, 0, 0, -131046, 0, 0, -131045, 0, 0, -131044, 0, 0, -131043, 0, 0, -131042, 0, 0, -131041, 0, 0, -131040, 0, 0, -131039, 0, 0, -131038, 0, 0, -131037, 0, 0, -131036, 0, 0, -131035, 0, 0, -131034, 0, 0, -131033, 0, 0, -131032, 0, 0, -131031, 0, 0, -131030, 0, 0, -131029, 0, 0, -131028, 0, 0, -131027, 0, 0, -131026, 0, 0, -131025, 0, 0, -131024, 0, 0, -131023, 0, 0, -131022, 0, 0, -131021, 0, 0, -131020, 0, 0, -131019, 0, 0, -131018, 0, 0, -131017, 0, 0, -131016, 0, 0, -131015, 0, 0, -131014, 0, 0, -131013, 0, 0, -131012, 0, 0, -131011, 0, 0, -131010, 0, 0, -131009, 0, 0, -131008, 0, 0, -131007, 0, 0, -131006, 0, 0, -131005, 0, 0, -131004, 0, 0, -131003, 0, 0, -131002, 0, 0, -131001, 0, 0, -131000, 0, 0, -130999, 0, 0, -130998, 0, 0, -130997, 0, 0, -130996, 0, 0, -130995, 0, 0, -130994, 0, 0, -130993, 0, 0, -130992, 0, 0, -130991, 0, 0, -130990, 0, 0, -130989, 0, 0, -2, 0, 0, -1, 0, 0, -65454, 0, 0, -65453, 0, 0, 65534, 0, 0, 65535, 0, 0, 82, 0, 0, 83, 0, 0, 131070, 0, 0, 131071, 0, 0, 65618, 0, 0, 65619, 0, 0, 196606, 0, 0, 196607, 0, 0, 131154, 0, 0, 131155, 0, 0, 262142, 0, 0, 262143, 0, 0, 196690, 0, 0, 196691, 0, 0, 327678, 0, 0, 327679, 0, 0, 262226, 0, 0, 262227, 0, 0, 393214, 0, 0, 393215, 0, 0, 327762, 0, 0, 327763, 0, 0, 458750, 0, 0, 458751, 0, 0, 393298, 0, 0, 393299, 0, 0, 524286, 0, 0, 524287, 0, 0, 458834, 0, 0, 458835, 0, 0, 589822, 0, 0, 589823, 0, 0, 524370, 0, 0, 524371, 0, 0, 655358, 0, 0, 655359, 0, 0, 589906, 0, 0, 589907, 0, 0, 720894, 0, 0, 720895, 0, 0, 655442, 0, 0, 655443, 0, 0, 786430, 0, 0, 786431, 0, 0, 720978, 0, 0, 720979, 0, 0, 851966, 0, 0, 851967, 0, 0, 786514, 0, 0, 786515, 0, 0, 917502, 0, 0, 917503, 0, 0, 852050, 0, 0, 852051, 0, 0, 983038, 0, 0, 983039, 0, 0, 917586, 0, 0, 917587, 0, 0, 1048574, 0, 0, 1048575, 0, 0, 983122, 0, 0, 983123, 0, 0, 1114110, 0, 0, 1114111, 0, 0, 1048658, 0, 0, 1048659, 0, 0, 1179646, 0, 0, 1179647, 0, 0, 1114194, 0, 0, 1114195, 0, 0, 1245182, 0, 0, 1245183, 0, 0, 1179730, 0, 0, 1179731, 0, 0, 1310718, 0, 0, 1310719, 0, 0, 1245266, 0, 0, 1245267, 0, 0, 1376254, 0, 0, 1376255, 0, 0, 1310802, 0, 0, 1310803, 0, 0, 1441790, 0, 0, 1441791, 0, 0, 1376338, 0, 0, 1376339, 0, 0, 1507326, 0, 0, 1507327, 0, 0, 1441874, 0, 0, 1441875, 0, 0, 1572862, 0, 0, 1572863, 0, 0, 1507410, 0, 0, 1507411, 0, 0, 1638398, 0, 0, 1638399, 0, 0, 1572946, 0, 0, 1572947, 0, 0, 1703934, 0, 0, 1703935, 0, 0, 1638482, 0, 0, 1638483, 0, 0, 1769470, 0, 0, 1769471, 0, 0, 1704018, 0, 0, 1704019, 0, 0, 1835006, 0, 0, 1835007, 0, 0, 1769554, 0, 0, 1769555, 0, 0, 1900542, 0, 0, 1900543, 0, 0, 1835090, 0, 0, 1835091, 0, 0, 1966078, 0, 0, 1966079, 0, 0, 1900626, 0, 0, 1900627, 0, 0, 2031614, 0, 0, 2031615, 0, 0, 1966162, 0, 0, 1966163, 0, 0, 2097150, 0, 0, 2097151, 0, 0, 2031698, 0, 0, 2031699, 0, 0, 2162686, 0, 0, 2162687, 0, 0, 2097234, 0, 0, 2097235, 0, 0, 2228222, 0, 0, 2228223, 0, 0, 2162770, 0, 0, 2162771, 0, 0, 2293758, 0, 0, 2293759, 0, 0, 2228306, 0, 0, 2228307, 0, 0, 2359294, 0, 0, 2359295, 0, 0, 2293842, 0, 0, 2293843, 0, 0, 2424830, 0, 0, 2424831, 0, 0, 2359378, 0, 0, 2359379, 0, 0, 2490366, 0, 0, 2490367, 0, 0, 2424914, 0, 0, 2424915, 0, 0, 2555902, 0, 0, 2555903, 0, 0, 2490450, 0, 0, 2490451, 0, 0, 2621438, 0, 0, 2621439, 0, 0, 2555986, 0, 0, 2555987, 0, 0, 2686974, 0, 0, 2686975, 0, 0, 2621522, 0, 0, 2621523, 0, 0, 2752510, 0, 0, 2752511, 0, 0, 2687058, 0, 0, 2687059, 0, 0, 2818046, 0, 0, 2818047, 0, 0, 2752594, 0, 0, 2752595, 0, 0, 2883582, 0, 0, 2883583, 0, 0, 2818130, 0, 0, 2818131, 0, 0, 2949118, 0, 0, 2949119, 0, 0, 2883666, 0, 0, 2883667, 0, 0, 3014654, 0, 0, 3014655, 0, 0, 2949202, 0, 0, 2949203, 0, 0, 3080190, 0, 0, 3080191, 0, 0, 3014738, 0, 0, 3014739, 0, 0, 3145726, 0, 0, 3145727, 0, 0, 3080274, 0, 0, 3080275, 0, 0, 3211262, 0, 0, 3211263, 0, 0, 3145810, 0, 0, 3145811, 0, 0, 3276798, 0, 0, 3276799, 0, 0, 3211346, 0, 0, 3211347, 0, 0, 3342334, 0, 0, 3342335, 0, 0, 3276882, 0, 0, 3276883, 0, 0, 3407870, 0, 0, 3407871, 0, 0, 3342418, 0, 0, 3342419, 0, 0, 3473406, 0, 0, 3473407, 0, 0, 3407954, 0, 0, 3407955, 0, 0, 3538942, 0, 0, 3538943, 0, 0, 3473490, 0, 0, 3473491, 0, 0, 3604478, 0, 0, 3604479, 0, 0, 3539026, 0, 0, 3539027, 0, 0, 3670014, 0, 0, 3670015, 0, 0, 3604562, 0, 0, 3604563, 0, 0, 3735550, 0, 0, 3735551, 0, 0, 3670098, 0, 0, 3670099, 0, 0, 3801086, 0, 0, 3801087, 0, 0, 3735634, 0, 0, 3735635, 0, 0, 3866622, 0, 0, 3866623, 0, 0, 3801088, 0, 0, 3801089, 0, 0, 3801090, 0, 0, 3801091, 0, 0, 3801092, 0, 0, 3801093, 0, 0, 3801094, 0, 0, 3801095, 0, 0, 3801096, 0, 0, 3801097, 0, 0, 3801098, 0, 0, 3801099, 0, 0, 3801100, 0, 0, 3801101, 0, 0, 3801102, 0, 0, 3801103, 0, 0, 3801104, 0, 0, 3801105, 0, 0, 3801106, 0, 0, 3801107, 0, 0, 3801108, 0, 0, 3801109, 0, 0, 3801110, 0, 0, 3801111, 0, 0, 3801112, 0, 0, 3801113, 0, 0, 3801114, 0, 0, 3801115, 0, 0, 3801116, 0, 0, 3801117, 0, 0, 3801118, 0, 0, 3801119, 0, 0, 3801120, 0, 0, 3801121, 0, 0, 3801122, 0, 0, 3801123, 0, 0, 3801124, 0, 0, 3801125, 0, 0, 3801126, 0, 0, 3801127, 0, 0, 3801128, 0, 0, 3801129, 0, 0, 3801130, 0, 0, 3801131, 0, 0, 3801132, 0, 0, 3801133, 0, 0, 3801134, 0, 0, 3801135, 0, 0, 3801136, 0, 0, 3801137, 0, 0, 3801138, 0, 0, 3801139, 0, 0, 3801140, 0, 0, 3801141, 0, 0, 3801142, 0, 0, 3801143, 0, 0, 3801144, 0, 0, 3801145, 0, 0, 3801146, 0, 0, 3801147, 0, 0, 3801148, 0, 0, 3801149, 0, 0, 3801150, 0, 0, 3801151, 0, 0, 3801152, 0, 0, 3801153, 0, 0, 3801154, 0, 0, 3801155, 0, 0, 3801156, 0, 0, 3801157, 0, 0, 3801158, 0, 0, 3801159, 0, 0, 3801160, 0, 0, 3801161, 0, 0, 3801162, 0, 0, 3801163, 0, 0, 3801164, 0, 0, 3801165, 0, 0, 3801166, 0, 0, 3801167, 0, 0, 3801168, 0, 0, 3801169, 0, 0, 3801170, 0, 0, 3801171, 0, 0, 3932158, 0, 0, 3932159, 0, 0, 3866624, 0, 0, 3866625, 0, 0, 3866626, 0, 0, 3866627, 0, 0, 3866628, 0, 0, 3866629, 0, 0, 3866630, 0, 0, 3866631, 0, 0, 3866632, 0, 0, 3866633, 0, 0, 3866634, 0, 0, 3866635, 0, 0, 3866636, 0, 0, 3866637, 0, 0, 3866638, 0, 0, 3866639, 0, 0, 3866640, 0, 0, 3866641, 0, 0, 3866642, 0, 0, 3866643, 0, 0, 3866644, 0, 0, 3866645, 0, 0, 3866646, 0, 0, 3866647, 0, 0, 3866648, 0, 0, 3866649, 0, 0, 3866650, 0, 0, 3866651, 0, 0, 3866652, 0, 0, 3866653, 0, 0, 3866654, 0, 0, 3866655, 0, 0, 3866656, 0, 0, 3866657, 0, 0, 3866658, 0, 0, 3866659, 0, 0, 3866660, 0, 0, 3866661, 0, 0, 3866662, 0, 0, 3866663, 0, 0, 3866664, 0, 0, 3866665, 0, 0, 3866666, 0, 0, 3866667, 0, 0, 3866668, 0, 0, 3866669, 0, 0, 3866670, 0, 0, 3866671, 0, 0, 3866672, 0, 0, 3866673, 0, 0, 3866674, 0, 0, 3866675, 0, 0, 3866676, 0, 0, 3866677, 0, 0, 3866678, 0, 0, 3866679, 0, 0, 3866680, 0, 0, 3866681, 0, 0, 3866682, 0, 0, 3866683, 0, 0, 3866684, 0, 0, 3866685, 0, 0, 3866686, 0, 0, 3866687, 0, 0, 3866688, 0, 0, 3866689, 0, 0, 3866690, 0, 0, 3866691, 0, 0, 3866692, 0, 0, 3866693, 0, 0, 3866694, 0, 0, 3866695, 0, 0, 3866696, 0, 0, 3866697, 0, 0, 3866698, 0, 0, 3866699, 0, 0, 3866700, 0, 0, 3866701, 0, 0, 3866702, 0, 0, 3866703, 0, 0, 3866704, 0, 0, 3866705, 0, 0, 3866706, 0, 0, 3866707, 0, 0 )
_sections_unfolded = [ "Collision" ]

[node name="Platforms" type="TileMap" parent="World" index="1"]

mode = 0
tile_set = ExtResource( 3 )
cell_size = Vector2( 24, 24 )
cell_quadrant_size = 16
cell_custom_transform = Transform2D( 1, 0, 0, 1, 0, 0 )
cell_half_offset = 2
cell_tile_origin = 0
cell_y_sort = false
cell_clip_uv = false
collision_use_kinematic = false
collision_friction = 1.0
collision_bounce = 0.0
collision_layer = 16
collision_mask = 6
occluder_light_mask = 1
format = 1
tile_data = PoolIntArray( 786450, 0, 0, 786451, 0, 0, 786452, 0, 0, 786453, 0, 0, 786454, 0, 0, 786455, 0, 0, 786456, 0, 0, 786457, 0, 0, 786458, 0, 0, 786459, 0, 0, 786460, 0, 0, 786461, 0, 0, 786462, 0, 0, 786463, 0, 0, 786464, 0, 0, 786465, 0, 0, 786466, 0, 0, 786467, 0, 0, 786468, 0, 0, 786469, 0, 0, 786470, 0, 0, 786471, 0, 0, 786472, 0, 0, 851986, 0, 0, 851987, 0, 0, 851988, 0, 0, 851989, 0, 0, 851990, 0, 0, 851991, 0, 0, 851992, 0, 0, 851993, 0, 0, 851994, 0, 0, 851995, 0, 0, 851996, 0, 0, 851997, 0, 0, 851998, 0, 0, 851999, 0, 0, 852000, 0, 0, 852001, 0, 0, 852002, 0, 0, 852003, 0, 0, 852004, 0, 0, 852005, 0, 0, 852006, 0, 0, 852007, 0, 0, 852008, 0, 0, 917522, 0, 0, 917523, 0, 0, 917524, 0, 0, 917525, 0, 0, 917526, 0, 0, 917527, 0, 0, 917528, 0, 0, 917529, 0, 0, 917530, 0, 0, 917531, 0, 0, 917532, 0, 0, 917533, 0, 0, 917534, 0, 0, 917535, 0, 0, 917536, 0, 0, 917537, 0, 0, 917538, 0, 0, 917539, 0, 0, 917540, 0, 0, 917541, 0, 0, 917542, 0, 0, 917543, 0, 0, 917544, 0, 0, 1769523, 0, 0, 1769524, 0, 0, 1769525, 0, 0, 1769526, 0, 0, 1769527, 0, 0, 1769528, 0, 0, 1769529, 0, 0, 1769530, 0, 0, 1769531, 0, 0, 1769532, 0, 0, 1769533, 0, 0, 1769534, 0, 0, 1769535, 0, 0, 1769536, 0, 0, 1769537, 0, 0, 1769538, 0, 0, 1769539, 0, 0, 1769540, 0, 0, 1769541, 0, 0, 1769542, 0, 0, 1769543, 0, 0, 1769544, 0, 0, 1769545, 0, 0, 1835059, 0, 0, 1835060, 0, 0, 1835061, 0, 0, 1835062, 0, 0, 1835063, 0, 0, 1835064, 0, 0, 1835065, 0, 0, 1835066, 0, 0, 1835067, 0, 0, 1835068, 0, 0, 1835069, 0, 0, 1835070, 0, 0, 1835071, 0, 0, 1835072, 0, 0, 1835073, 0, 0, 1835074, 0, 0, 1835075, 0, 0, 1835076, 0, 0, 1835077, 0, 0, 1835078, 0, 0, 1835079, 0, 0, 1835080, 0, 0, 1835081, 0, 0, 2555913, 0, 0, 2555914, 0, 0, 2555915, 0, 0, 2555916, 0, 0, 2555917, 0, 0, 2555918, 0, 0, 2555919, 0, 0, 2555920, 0, 0, 2555921, 0, 0, 2555922, 0, 0, 2555923, 0, 0, 2555924, 0, 0, 2555925, 0, 0, 2555926, 0, 0, 2555927, 0, 0, 2555928, 0, 0, 2555929, 0, 0, 2555930, 0, 0, 2555931, 0, 0, 2555932, 0, 0, 2621449, 0, 0, 2621450, 0, 0, 2621451, 0, 0, 2621452, 0, 0, 2621453, 0, 0, 2621454, 0, 0, 2621455, 0, 0, 2621456, 0, 0, 2621457, 0, 0, 2621458, 0, 0, 2621459, 0, 0, 2621460, 0, 0, 2621461, 0, 0, 2621462, 0, 0, 2621463, 0, 0, 2621464, 0, 0, 2621465, 0, 0, 2621466, 0, 0, 2621467, 0, 0, 2621468, 0, 0, 2883632, 0, 0, 2883633, 0, 0, 2883634, 0, 0, 2883635, 0, 0, 2883636, 0, 0, 2883637, 0, 0, 2883638, 0, 0, 2883639, 0, 0, 2883640, 0, 0, 2883641, 0, 0, 2883642, 0, 0, 2883643, 0, 0, 2883644, 0, 0, 2883645, 0, 0, 2949168, 0, 0, 2949169, 0, 0, 2949170, 0, 0, 2949171, 0, 0, 2949172, 0, 0, 2949173, 0, 0, 2949174, 0, 0, 2949175, 0, 0, 2949176, 0, 0, 2949177, 0, 0, 2949178, 0, 0, 2949179, 0, 0, 2949180, 0, 0, 2949181, 0, 0, 3014704, 0, 0, 3014705, 0, 0, 3014706, 0, 0, 3014707, 0, 0, 3014708, 0, 0, 3014709, 0, 0, 3014710, 0, 0, 3014711, 0, 0, 3014712, 0, 0, 3014713, 0, 0, 3014714, 0, 0, 3014715, 0, 0, 3014716, 0, 0, 3014717, 0, 0, 3735552, 1, 0, 3735553, 1, 0, 3735554, 1, 0, 3735555, 1, 0, 3735556, 1, 0, 3735557, 1, 0, 3735558, 1, 0, 3735559, 1, 0, 3735560, 1, 0, 3735561, 1, 0, 3735562, 1, 0, 3735563, 1, 0, 3735564, 1, 0, 3735565, 1, 0, 3735566, 1, 0, 3735567, 1, 0, 3735568, 1, 0, 3735569, 1, 0, 3735570, 1, 0, 3735571, 1, 0, 3735572, 1, 0, 3735573, 1, 0, 3735574, 1, 0, 3735575, 1, 0, 3735576, 1, 0, 3735577, 1, 0, 3735578, 1, 0, 3735579, 1, 0, 3735580, 1, 0, 3735581, 1, 0, 3735582, 1, 0, 3735583, 1, 0, 3735584, 1, 0, 3735585, 1, 0, 3735586, 1, 0, 3735587, 1, 0, 3735588, 1, 0, 3735589, 1, 0, 3735590, 1, 0, 3735591, 1, 0, 3735592, 1, 0, 3735593, 1, 0, 3735594, 1, 0, 3735595, 1, 0, 3735596, 1, 0, 3735597, 1, 0, 3735598, 1, 0, 3735599, 1, 0, 3735600, 1, 0, 3735601, 1, 0, 3735602, 1, 0, 3735603, 1, 0, 3735604, 1, 0, 3735605, 1, 0, 3735606, 1, 0, 3735607, 1, 0, 3735608, 1, 0, 3735609, 1, 0, 3735610, 1, 0, 3735611, 1, 0, 3735612, 1, 0, 3735613, 1, 0, 3735614, 1, 0, 3735615, 1, 0, 3735616, 1, 0, 3735617, 1, 0, 3735618, 1, 0, 3735619, 1, 0, 3735620, 1, 0, 3735621, 1, 0, 3735622, 1, 0, 3735623, 1, 0, 3735624, 1, 0, 3735625, 1, 0, 3735626, 1, 0, 3735627, 1, 0, 3735628, 1, 0, 3735629, 1, 0, 3735630, 1, 0, 3735631, 1, 0, 3735632, 1, 0, 3735633, 1, 0 )
_sections_unfolded = [ "Collision" ]

[node name="Enemy1" parent="." index="1" instance=ExtResource( 4 )]

position = Vector2( 341.191, 695.97 )
_max_health = 6

[node name="static" parent="." index="2" instance=ExtResource( 5 )]

position = Vector2( 1320.17, 945.88 )

[node name="static2" parent="." index="3" instance=ExtResource( 5 )]

position = Vector2( 901.93, 1105.65 )

[node name="Enemy2" parent="." index="4" instance=ExtResource( 4 )]

position = Vector2( 400.655, 1155.03 )
_max_health = 6

[node name="Player" parent="." index="5" instance=ExtResource( 6 )]

position = Vector2( 341.452, 842.071 )

[node name="containerforHB" parent="Player" index="4" instance=ExtResource( 7 )]

position = Vector2( -6.43616, -149.113 )
scale = Vector2( 2.39631, 1.71011 )

[connection signal="health_change" from="Player" to="Player/containerforHB" method="_on_Player_health_change"]


